Node list: hopper[007-008]
Numeber of Task: 12
# A tibble: 121 × 7
   Year  mean_temp mean_prec mean_ber mean_quad mean_ber_alt mean_quad_alt
   <chr>     <dbl>     <dbl>    <dbl>     <dbl>        <dbl>         <dbl>
 1 1901       8.01      29.4    0.346     0.157         3.43          1.63
 2 1902       7.62      29.1    0.343     0.160         3.39          1.67
 3 1903       7.79      29.8    0.348     0.154         3.42          1.58
 4 1904       7.74      29.5    0.335     0.151         3.21          1.52
 5 1905       7.85      29.7    0.339     0.156         3.32          1.60
 6 1906       7.98      30.1    0.350     0.153         3.47          1.58
 7 1907       7.53      29.4    0.339     0.154         3.30          1.57
 8 1908       7.74      29.7    0.343     0.151         3.36          1.54
 9 1909       7.67      30.0    0.352     0.153         3.45          1.58
10 1910       7.79      29.8    0.349     0.146         3.40          1.49
# ℹ 111 more rows
…
